(lp0
F0.053
aF0.008
aF0.021
aF0.089
aF0.046
aF0.02
aF0.018
aF0.03
aF0.017
aF0.023
aF0.014
aF0.01
aF0.02
aF0.012
aF0.012
aF0.008
aF0.015
aF0.006
aF0.076
aF0.014
aF0.008
aF0.018
aF0.029
aF0.01
aF0.01
aF0.031
aF0.003
aF0.01
aF0.013
aF0.004
aF0.026
aF0.014
aF0.013
aF0.009
aF0.011
aF0.022
aF0.036
aF0.041
aF0.034
aF0.024
aF0.031
aF0.016
aF0.01
aF0.018
aF0.016
aF0.013
aF0.02
aF0.021
aF0.01
aF0.009
aF0.01
aF0.022
aF0.026
aF0.003
aF0.003
aF0.034
aF0.011
aF0.008
aF0.045
aF0.011
aF0.038
aF0.022
aF9.474
aF9.504
aF9.45
aF9.487
aF5.228
aF0.399
aF0.181
aF0.116
aF0.275
aF0.07
aF0.033
aF0.01
aF0.012
aF0.05
aF0.046
aF0.013
aF0.033
aF0.076
aF0.022
aF0.032
aF0.039
aF0.026
aF0.063
aF0.027
aF0.036
aF0.078
aF0.026
aF0.071
aF0.023
aF4.423
aF0.229
aF0.056
a.