(lp0
F9.4736328125
aF7.6337890625
aF0.6923828125
aF0.3779296875
aF0.2353515625
aF0.27734375
aF0.2041015625
aF0.1767578125
aF0.1455078125
aF0.138671875
aF0.134765625
aF0.1552734375
aF0.2021484375
aF0.1416015625
aF0.13671875
aF0.1650390625
aF0.109375
aF0.115234375
aF0.154296875
aF0.1318359375
aF0.1494140625
aF0.1484375
aF0.1103515625
aF0.1162109375
aF0.154296875
aF0.0673828125
aF0.15234375
aF0.07421875
aF0.078125
aF0.1640625
aF0.078125
aF0.1953125
aF0.109375
aF0.79296875
aF0.1865234375
aF0.1181640625
aF0.146484375
aF0.14453125
aF0.11328125
aF0.099609375
aF0.0888671875
aF0.072265625
aF0.107421875
aF0.11328125
aF0.158203125
aF0.109375
aF0.068359375
aF0.05859375
aF0.0830078125
aF0.099609375
aF0.1025390625
aF0.349609375
aF0.0849609375
aF0.06640625
aF0.095703125
aF0.1337890625
aF0.083984375
aF0.0703125
aF0.103515625
aF0.068359375
aF0.095703125
aF0.0947265625
aF0.0966796875
aF0.123046875
aF0.0791015625
aF0.3173828125
aF0.2197265625
aF0.1142578125
aF0.1044921875
aF0.1484375
aF0.14453125
aF0.185546875
aF0.2587890625
aF0.1982421875
aF0.2744140625
aF0.203125
aF0.29296875
aF0.1884765625
aF0.1513671875
aF0.271484375
aF0.1806640625
aF0.3603515625
aF0.232421875
aF0.1484375
aF0.130859375
aF0.095703125
aF0.2001953125
aF0.4140625
aF9.4716796875
aF9.51171875
aF2.2763671875
aF0.3466796875
aF1.1005859375
aF0.5732421875
aF0.2548828125
aF0.2060546875
aF0.154296875
aF0.1845703125
aF0.125
aF0.1240234375
aF0.1962890625
aF0.154296875
aF0.1123046875
aF0.1669921875
aF0.2099609375
aF0.1669921875
aF0.1923828125
aF0.1533203125
aF0.19140625
aF9.51953125
aF9.4970703125
aF9.529296875
aF9.4755859375
aF7.1552734375
aF5.81640625
aF3.625
aF0.5390625
aF0.2685546875
aF0.248046875
aF0.10546875
aF0.181640625
aF0.1064453125
aF0.1787109375
aF0.1572265625
aF0.2021484375
aF0.2021484375
aF0.2041015625
aF0.0615234375
aF0.1669921875
aF0.138671875
aF0.1787109375
aF0.2119140625
aF8.515625
aF9.5693359375
aF9.474609375
aF8.9697265625
aF0.4482421875
aF0.1201171875
aF1.0537109375
aF0.44140625
aF0.26171875
aF0.103515625
aF0.6328125
aF0.2080078125
aF0.0751953125
aF0.125
aF0.1630859375
aF0.1396484375
aF0.1240234375
aF0.1376953125
aF0.140625
aF0.083984375
aF0.3193359375
aF0.318359375
aF9.3994140625
aF9.48828125
aF5.3984375
aF0.8037109375
aF0.2421875
aF0.18359375
aF0.1708984375
aF0.0595703125
aF0.1884765625
aF0.2353515625
aF0.1845703125
aF0.0634765625
aF0.115234375
aF0.1455078125
aF0.068359375
aF0.134765625
aF0.1279296875
aF0.224609375
aF0.52734375
aF9.4970703125
aF9.5
aF7.900390625
aF7.904296875
aF0.8544921875
aF0.5009765625
aF0.328125
aF0.197265625
aF0.1455078125
aF0.1259765625
aF0.125
aF0.1064453125
aF0.1376953125
aF0.17578125
aF0.1943359375
aF0.1376953125
aF0.1015625
aF0.1142578125
aF0.0947265625
aF0.376953125
aF0.791015625
aF9.4951171875
aF9.466796875
aF9.4853515625
aF9.5068359375
aF3.142578125
aF0.4833984375
aF0.12109375
aF0.08984375
aF0.140625
aF0.1279296875
aF0.2001953125
aF0.1328125
aF0.0966796875
aF0.1943359375
aF0.1298828125
aF0.119140625
aF0.1435546875
aF0.19921875
aF0.130859375
aF0.1328125
aF0.1142578125
aF9.4521484375
aF9.509765625
aF9.431640625
aF7.3828125
aF0.5419921875
aF0.19921875
aF0.0810546875
aF0.083984375
aF0.111328125
aF0.12109375
aF0.1494140625
aF0.16015625
aF0.166015625
aF0.1328125
aF0.1171875
aF0.16015625
aF0.1357421875
aF0.1240234375
aF0.171875
aF0.154296875
aF0.0947265625
aF0.0986328125
aF0.1552734375
aF0.8994140625
aF9.48828125
aF9.5
aF9.521484375
aF9.5078125
aF4.3544921875
aF0.943359375
aF0.4033203125
aF0.19921875
aF0.080078125
aF0.1259765625
aF0.0732421875
aF0.17578125
aF0.1494140625
aF0.0595703125
aF0.150390625
aF0.0908203125
aF0.09765625
aF0.1806640625
aF0.0654296875
aF0.1748046875
aF0.0986328125
aF0.130859375
aF0.2333984375
aF0.189453125
aF0.1962890625
aF0.1025390625
aF0.126953125
aF0.138671875
aF0.0498046875
aF9.5234375
aF9.501953125
aF9.53125
aF9.55859375
aF9.4814453125
aF9.4755859375
aF3.8349609375
aF0.353515625
aF0.1982421875
aF0.1005859375
aF0.0966796875
aF0.1123046875
aF0.0498046875
aF0.1025390625
aF0.1396484375
aF0.0615234375
aF0.09765625
aF0.1533203125
aF0.064453125
aF0.0634765625
aF0.1328125
aF0.146484375
aF0.0908203125
aF0.1435546875
aF9.51171875
aF9.5146484375
aF5.35546875
aF9.2138671875
aF3.3203125
aF0.52734375
aF0.1376953125
aF0.2392578125
aF0.142578125
aF0.1357421875
aF0.0751953125
aF0.109375
aF0.08203125
aF0.1083984375
aF0.0732421875
aF0.1416015625
aF0.087890625
aF0.09765625
aF0.154296875
aF0.146484375
aF0.080078125
aF0.2890625
aF0.1337890625
aF9.5380859375
aF9.4609375
aF9.482421875
aF9.4453125
aF8.90625
aF1.1376953125
aF0.671875
aF0.2177734375
aF0.130859375
aF0.171875
aF0.1025390625
aF0.1396484375
aF0.1513671875
aF0.1240234375
aF0.1513671875
aF0.1201171875
aF0.140625
aF0.1494140625
aF0.1318359375
aF0.0712890625
aF0.171875
aF0.1279296875
aF3.58984375
aF9.48046875
aF9.1630859375
aF9.3056640625
aF4.1259765625
aF1.029296875
aF0.2177734375
aF0.1064453125
aF0.107421875
aF0.0908203125
aF0.0830078125
aF0.09375
aF0.1201171875
aF0.0947265625
aF0.06640625
aF0.125
aF0.1123046875
aF0.16015625
aF0.09375
aF0.0693359375
aF0.10546875
aF0.1328125
aF0.3681640625
aF9.4921875
aF9.1796875
aF2.91015625
aF0.4462890625
aF0.4482421875
aF0.1611328125
aF0.1142578125
aF0.14453125
aF0.1357421875
aF0.111328125
aF0.068359375
aF0.1337890625
aF0.0693359375
aF0.083984375
aF0.1025390625
aF0.052734375
aF0.0830078125
aF0.294921875
aF0.158203125
aF0.3740234375
aF0.19140625
aF0.1083984375
aF0.0927734375
aF0.1162109375
aF0.0712890625
aF0.08984375
aF0.083984375
aF0.08984375
aF0.1162109375
aF0.1044921875
aF0.0703125
aF9.5166015625
aF9.478515625
aF9.5078125
aF8.7998046875
aF9.5029296875
aF8.4814453125
aF0.8662109375
aF0.384765625
aF0.4931640625
aF0.2939453125
aF0.16796875
aF0.1044921875
aF0.1318359375
aF0.12109375
aF0.0419921875
aF0.1240234375
aF0.1591796875
aF0.078125
aF0.1904296875
aF0.0888671875
aF0.146484375
aF0.130859375
aF0.109375
aF0.142578125
aF0.1513671875
aF9.30859375
aF9.51953125
aF9.31640625
aF9.4697265625
aF4.5888671875
aF4.7314453125
aF1.15234375
aF1.6181640625
aF0.3134765625
aF0.201171875
aF0.19921875
aF0.1708984375
aF0.14453125
aF0.0908203125
aF0.1513671875
aF0.125
aF0.111328125
aF0.0693359375
aF0.111328125
aF0.056640625
aF0.1181640625
aF0.1005859375
aF0.1142578125
aF0.8955078125
aF9.49609375
aF9.5146484375
aF5.2314453125
aF1.84375
aF7.1396484375
aF0.9462890625
aF0.2705078125
aF0.166015625
aF0.181640625
aF0.1240234375
aF0.05078125
aF0.1044921875
aF0.1298828125
aF0.0712890625
aF0.0859375
aF0.1328125
aF0.1435546875
aF0.1357421875
aF0.078125
aF0.1220703125
aF0.0673828125
aF0.7041015625
aF0.1982421875
aF9.4736328125
aF9.5029296875
aF9.3671875
aF4.1513671875
aF7.45703125
aF1.0693359375
aF1.279296875
aF0.4423828125
aF0.2021484375
aF0.123046875
aF0.13671875
aF0.1455078125
aF0.0849609375
aF0.130859375
aF0.1767578125
aF0.08203125
aF0.07421875
aF0.1494140625
aF0.0419921875
aF0.154296875
aF0.107421875
aF0.1103515625
aF0.1513671875
aF0.103515625
aF0.12890625
aF0.1474609375
aF0.1181640625
aF0.2001953125
aF0.0927734375
aF0.9609375
aF0.2705078125
aF0.7705078125
aF9.4951171875
aF9.4248046875
aF2.689453125
aF0.607421875
aF1.1142578125
aF4.9208984375
aF0.8935546875
aF0.3125
aF0.11328125
aF0.134765625
aF0.126953125
aF0.1396484375
aF0.0927734375
aF0.142578125
aF0.140625
aF0.1025390625
aF0.06640625
aF0.0546875
aF0.1572265625
aF0.0810546875
aF0.091796875
aF0.1640625
aF0.1162109375
aF0.251953125
aF9.5400390625
aF9.48828125
aF9.4873046875
aF8.0517578125
aF9.474609375
aF4.5693359375
aF0.4052734375
aF0.20703125
aF0.0947265625
aF0.07421875
aF0.091796875
aF0.11328125
aF0.0478515625
aF0.140625
aF0.1123046875
aF0.1513671875
aF0.0615234375
aF0.09375
aF0.0810546875
aF0.1767578125
aF0.119140625
aF0.3837890625
aF0.078125
aF0.0771484375
aF9.4541015625
aF9.505859375
aF8.076171875
aF9.5185546875
aF6.2548828125
aF2.1650390625
aF0.5576171875
aF1.0537109375
aF1.51953125
aF0.431640625
aF0.1494140625
aF0.140625
aF0.0810546875
aF0.095703125
aF0.1064453125
aF0.119140625
aF0.1259765625
aF0.1337890625
aF0.109375
aF0.12109375
aF0.02734375
aF0.076171875
aF0.099609375
aF0.1640625
aF0.115234375
aF1.2099609375
aF9.513671875
aF6.88671875
aF1.5966796875
aF4.66796875
aF0.7236328125
aF3.537109375
aF2.0244140625
aF0.37890625
aF0.1396484375
aF0.107421875
aF0.169921875
aF0.154296875
aF0.0810546875
aF0.1494140625
aF0.123046875
aF0.107421875
aF0.1142578125
aF0.1064453125
aF0.0869140625
aF0.064453125
aF0.1220703125
aF0.0908203125
aF0.1689453125
aF0.166015625
aF0.2060546875
aF0.4150390625
aF9.494140625
aF9.42578125
aF6.87890625
aF8.8466796875
aF4.509765625
aF0.6982421875
aF0.3857421875
aF0.2734375
aF0.119140625
aF0.0830078125
aF0.12109375
aF0.1103515625
aF0.0947265625
aF0.140625
aF0.142578125
aF0.1083984375
aF0.0625
aF0.099609375
aF0.181640625
aF0.0732421875
aF0.0927734375
aF0.076171875
aF0.2685546875
aF0.2158203125
aF0.2001953125
aF0.435546875
aF2.25
aF9.2109375
aF9.2998046875
aF1.7744140625
aF0.64453125
aF3.0673828125
aF1.509765625
aF3.1767578125
aF0.4853515625
aF0.2265625
aF0.111328125
aF0.150390625
aF0.1484375
aF0.119140625
aF0.1103515625
aF0.099609375
aF0.078125
aF0.111328125
aF0.099609375
aF0.080078125
aF0.0908203125
aF0.1025390625
aF0.11328125
aF0.123046875
aF0.0751953125
aF8.03515625
aF9.5029296875
aF9.5556640625
aF7.3095703125
aF5.37109375
aF4.2568359375
aF3.5712890625
aF0.7236328125
aF0.2021484375
aF0.1376953125
aF0.1240234375
aF0.0546875
aF0.0712890625
aF0.099609375
aF0.0517578125
aF0.068359375
aF0.169921875
aF0.0419921875
aF0.1640625
aF0.1630859375
aF0.2080078125
aF0.1005859375
aF0.0390625
aF0.1083984375
aF0.1328125
aF0.2099609375
aF9.01953125
aF9.560546875
aF9.490234375
aF8.8291015625
aF2.51171875
aF0.9990234375
aF5.830078125
aF1.1875
aF0.412109375
aF0.505859375
aF0.263671875
aF0.1357421875
aF0.1015625
aF0.0966796875
aF0.16015625
aF0.064453125
aF0.0927734375
aF0.0615234375
aF0.080078125
aF0.1435546875
aF0.1005859375
aF0.087890625
aF0.0341796875
aF0.177734375
aF0.1474609375
aF0.138671875
aF0.1064453125
aF1.1806640625
aF9.5087890625
aF8.76953125
aF1.337890625
aF1.3193359375
aF2.9228515625
aF0.69140625
aF0.5732421875
aF0.3115234375
aF0.0966796875
aF0.08203125
aF0.1142578125
aF0.0595703125
aF0.060546875
aF0.0615234375
aF0.07421875
aF0.1640625
aF0.107421875
aF0.0791015625
aF0.197265625
aF0.0966796875
aF0.056640625
aF0.06640625
aF0.09765625
aF0.099609375
aF2.9951171875
aF9.546875
aF4.9306640625
aF6.72265625
aF0.8486328125
aF3.2421875
aF0.3369140625
aF0.1826171875
aF0.10546875
aF0.1484375
aF0.1298828125
aF0.076171875
aF0.0810546875
aF0.1279296875
aF0.1083984375
aF0.1640625
aF0.1513671875
aF0.119140625
aF0.099609375
aF0.0439453125
aF0.10546875
aF0.232421875
aF0.1455078125
aF0.8935546875
aF9.4521484375
aF9.1982421875
aF9.5146484375
aF5.40625
aF3.9345703125
aF0.533203125
aF0.208984375
aF0.3662109375
aF0.1982421875
aF0.1435546875
aF0.1162109375
aF0.0947265625
aF0.1494140625
aF0.17578125
aF0.1240234375
aF0.0947265625
aF0.0693359375
aF0.076171875
aF0.0595703125
aF0.08203125
aF0.1220703125
aF0.5322265625
aF0.3037109375
aF9.52734375
aF9.48828125
aF3.169921875
aF5.4658203125
aF1.2109375
aF0.5322265625
aF0.9765625
aF0.193359375
aF0.11328125
aF0.0830078125
aF0.080078125
aF0.1025390625
aF0.1015625
aF0.076171875
aF0.0693359375
aF0.052734375
aF0.0693359375
aF0.1455078125
aF0.15234375
aF0.125
aF0.115234375
aF0.103515625
aF0.2216796875
aF0.1025390625
aF9.4765625
aF9.447265625
aF3.8681640625
aF1.90625
aF1.640625
aF1.3056640625
aF0.3828125
aF0.1015625
aF0.1318359375
aF0.076171875
aF0.0673828125
aF0.09765625
aF0.0732421875
aF0.1015625
aF0.1171875
aF0.080078125
aF0.123046875
aF0.0732421875
aF0.11328125
aF0.119140625
aF0.1083984375
aF0.1611328125
aF0.099609375
aF0.205078125
aF2.5234375
aF2.890625
aF9.1279296875
aF8.5751953125
aF5.9775390625
aF2.1875
aF0.5693359375
aF0.9970703125
aF0.634765625
aF0.2060546875
aF0.1123046875
aF0.1572265625
aF0.1435546875
aF0.056640625
aF0.0830078125
aF0.1025390625
aF0.109375
aF0.04296875
aF0.1171875
aF0.12109375
aF0.154296875
aF0.103515625
aF0.123046875
aF0.0615234375
aF0.125
aF0.291015625
aF2.583984375
aF8.595703125
aF3.443359375
aF3.5732421875
aF1.470703125
aF0.6728515625
aF1.0126953125
aF0.224609375
aF0.1357421875
aF0.15234375
aF0.06640625
aF0.0986328125
aF0.09375
aF0.1064453125
aF0.0869140625
aF0.1162109375
aF0.10546875
aF0.0546875
aF0.189453125
aF0.0810546875
aF0.0458984375
aF0.1611328125
aF0.1337890625
aF0.4541015625
aF0.095703125
aF1.224609375
aF8.330078125
aF8.029296875
aF1.55859375
aF0.4111328125
aF1.4931640625
aF5.841796875
aF0.6767578125
aF0.2919921875
aF0.107421875
aF0.064453125
aF0.0703125
aF0.083984375
aF0.1572265625
aF0.0537109375
aF0.1083984375
aF0.0546875
aF0.09765625
aF0.080078125
aF0.064453125
aF0.0517578125
aF0.1064453125
aF0.0732421875
aF0.056640625
aF0.080078125
aF0.08984375
aF0.3896484375
aF7.4755859375
aF1.115234375
aF9.5048828125
aF5.923828125
aF3.1123046875
aF1.5361328125
aF0.66796875
aF0.2802734375
aF0.1376953125
aF0.10546875
aF0.115234375
aF0.0712890625
aF0.1220703125
aF0.083984375
aF0.12109375
aF0.0654296875
aF0.1181640625
aF0.1044921875
aF0.109375
aF0.1142578125
aF0.2548828125
aF0.1064453125
aF0.0712890625
aF0.177734375
aF0.0859375
aF0.107421875
aF0.0615234375
aF0.07421875
aF0.1162109375
aF0.037109375
aF0.1318359375
aF9.2646484375
aF9.3232421875
aF9.4892578125
aF9.486328125
aF8.3759765625
aF4.921875
aF9.3203125
aF3.83984375
aF0.7802734375
aF0.630859375
aF0.2431640625
aF0.3349609375
aF0.16796875
aF0.095703125
aF0.11328125
aF0.107421875
aF0.09375
aF0.0634765625
aF0.0830078125
aF0.107421875
aF0.1376953125
aF0.146484375
aF0.064453125
aF0.1455078125
aF0.1064453125
aF0.05859375
aF0.1435546875
aF0.0654296875
aF0.0791015625
aF8.2734375
aF4.689453125
aF4.7607421875
aF1.154296875
aF1.6044921875
aF0.685546875
aF2.1728515625
aF0.484375
aF0.11328125
aF0.1240234375
aF0.083984375
aF0.1337890625
aF0.0869140625
aF0.115234375
aF0.10546875
aF0.1015625
aF0.0556640625
aF0.1044921875
aF0.154296875
aF0.076171875
aF0.0625
aF0.10546875
aF0.083984375
aF0.08203125
aF0.12109375
aF0.1083984375
aF0.9521484375
aF7.9521484375
aF1.8037109375
aF1.6240234375
aF5.359375
aF0.8818359375
aF1.33203125
aF0.8681640625
aF0.3828125
aF0.1572265625
aF0.1533203125
aF0.1083984375
aF0.1318359375
aF0.0751953125
aF0.1103515625
aF0.5
aF0.193359375
aF0.171875
aF0.09375
aF0.099609375
aF0.072265625
aF0.0517578125
aF0.0908203125
aF0.0625
aF0.1123046875
aF0.1240234375
aF0.0439453125
aF0.28125
aF9.4970703125
aF9.5361328125
aF7.46484375
aF1.8564453125
aF6.2119140625
aF4.0947265625
aF0.8134765625
aF0.74609375
aF0.3330078125
aF0.193359375
aF0.1591796875
aF0.11328125
aF0.080078125
aF0.1005859375
aF0.12109375
aF0.0615234375
aF0.076171875
aF0.06640625
aF0.0625
aF0.060546875
aF0.0458984375
aF0.14453125
aF0.126953125
aF0.1025390625
aF0.0927734375
aF0.1552734375
aF0.064453125
aF0.2021484375
aF9.478515625
aF5.5517578125
aF8.431640625
aF2.765625
aF9.5380859375
aF6.884765625
aF2.083984375
aF0.908203125
aF0.3203125
aF0.162109375
aF0.1201171875
aF0.091796875
aF0.09765625
aF0.046875
aF0.119140625
aF0.076171875
aF0.0634765625
aF0.0693359375
aF0.1123046875
aF0.0673828125
aF0.1376953125
aF0.0673828125
aF0.1015625
aF0.0625
aF0.048828125
aF0.115234375
aF0.10546875
aF0.486328125
aF8.5234375
aF4.5830078125
aF8.611328125
aF1.8994140625
aF0.8232421875
aF7.916015625
aF2.1025390625
aF1.3388671875
aF0.4619140625
aF0.25
aF0.228515625
aF0.1064453125
aF0.0888671875
aF0.09765625
aF0.0634765625
aF0.046875
aF0.0576171875
aF0.06640625
aF0.0693359375
aF0.1044921875
aF0.0830078125
aF0.1416015625
aF0.0703125
aF0.05859375
aF0.1171875
aF0.154296875
aF0.224609375
aF0.30078125
aF9.544921875
aF2.3623046875
aF4.5537109375
aF1.0517578125
aF7.9580078125
aF3.470703125
aF0.9267578125
aF2.9013671875
aF0.607421875
aF0.1943359375
aF0.13671875
aF0.083984375
aF0.0703125
aF0.1240234375
aF0.1201171875
aF0.130859375
aF0.0693359375
aF0.0869140625
aF0.09765625
aF0.154296875
aF0.10546875
aF0.1484375
aF0.15625
aF0.099609375
aF0.09765625
aF0.1591796875
aF0.076171875
aF0.2490234375
aF0.7490234375
aF2.3896484375
aF4.185546875
aF1.17578125
aF4.716796875
aF1.2177734375
aF0.6708984375
aF0.47265625
aF0.2587890625
aF0.2021484375
aF0.1005859375
aF0.099609375
aF0.0751953125
aF0.0439453125
aF0.072265625
aF0.103515625
aF0.07421875
aF0.0556640625
aF0.087890625
aF0.1142578125
aF0.08203125
aF0.091796875
aF0.0927734375
aF0.072265625
aF0.1416015625
aF0.0556640625
aF0.2353515625
aF4.388671875
aF1.4921875
aF0.9091796875
aF2.7724609375
aF1.4091796875
aF0.5517578125
aF0.9404296875
aF0.474609375
aF3.462890625
aF0.6181640625
aF0.234375
aF0.2314453125
aF0.1025390625
aF0.115234375
aF0.0849609375
aF0.078125
aF0.12109375
aF0.1259765625
aF0.064453125
aF0.0595703125
aF0.181640625
aF0.2705078125
aF0.119140625
aF0.0615234375
aF0.0966796875
aF0.1328125
aF0.13671875
aF0.2197265625
aF0.3720703125
aF6.142578125
aF9.1689453125
aF1.8271484375
aF2.537109375
aF2.6611328125
aF1.6494140625
aF0.73046875
aF0.3779296875
aF0.412109375
aF0.228515625
aF0.07421875
aF0.0986328125
aF0.07421875
aF0.0595703125
aF0.0810546875
aF0.07421875
aF0.046875
aF0.07421875
aF0.1103515625
aF0.0869140625
aF0.138671875
aF0.0888671875
aF0.08984375
aF0.1533203125
aF0.1513671875
aF0.0712890625
aF0.1884765625
aF0.22265625
aF8.853515625
aF7.4482421875
aF3.9814453125
aF4.2216796875
aF2.0673828125
aF1.09375
aF0.494140625
aF6.2548828125
aF0.6064453125
aF0.3037109375
aF0.2431640625
aF0.083984375
aF0.119140625
aF0.158203125
aF0.1044921875
aF0.09765625
aF0.091796875
aF0.0869140625
aF0.068359375
aF0.1220703125
aF0.109375
aF0.08203125
aF0.107421875
aF0.0732421875
aF0.1171875
aF0.0703125
aF0.0966796875
aF0.150390625
aF0.57421875
aF5.9931640625
aF8.689453125
aF1.16796875
aF1.609375
aF0.990234375
aF0.51953125
aF0.5380859375
aF0.5
aF0.1748046875
aF0.06640625
aF0.0771484375
aF0.0791015625
aF0.080078125
aF0.123046875
aF0.08984375
aF0.025390625
aF0.1220703125
aF0.091796875
aF0.0634765625
aF0.087890625
aF0.1494140625
aF0.09765625
aF0.1171875
aF0.095703125
aF0.0771484375
aF0.1171875
aF0.1796875
aF0.146484375
aF9.3095703125
aF6.3193359375
aF1.3994140625
aF2.169921875
aF4.9794921875
aF0.744140625
aF9.3125
aF1.845703125
aF0.8310546875
aF0.3017578125
aF0.1728515625
aF0.13671875
aF0.0634765625
aF0.09765625
aF0.0380859375
aF0.087890625
aF0.1611328125
aF0.083984375
aF0.1357421875
aF0.0498046875
aF0.03515625
aF0.029296875
aF0.12890625
aF0.1103515625
aF0.1044921875
aF0.08984375
aF0.056640625
aF1.2197265625
aF0.1787109375
aF0.205078125
aF2.353515625
aF1.15625
aF6.111328125
aF0.7314453125
aF2.634765625
aF0.72265625
aF7.853515625
aF1.3125
aF0.521484375
aF0.18359375
aF0.33203125
aF0.1162109375
aF0.11328125
aF0.162109375
aF0.072265625
aF0.072265625
aF0.173828125
aF0.1005859375
aF0.095703125
aF0.056640625
aF0.0830078125
aF0.0869140625
aF0.1328125
aF0.068359375
aF0.142578125
aF0.1611328125
aF0.0751953125
aF0.083984375
aF0.05859375
aF0.1513671875
aF6.85546875
aF1.68359375
aF9.525390625
aF9.0234375
aF3.3369140625
aF1.20703125
aF1.5703125
aF0.875
aF4.79296875
aF1.05078125
aF0.4384765625
aF0.287109375
aF0.1416015625
aF0.1357421875
aF0.134765625
aF0.1025390625
aF0.095703125
aF0.1171875
aF0.0947265625
aF0.0673828125
aF0.09375
aF0.0634765625
aF0.1005859375
aF0.0908203125
aF0.0966796875
aF0.35546875
aF0.1181640625
aF0.12890625
aF0.1015625
aF0.1875
aF0.0947265625
aF0.0751953125
aF0.65625
aF7.8779296875
aF1.890625
aF1.2099609375
aF1.853515625
aF1.615234375
aF2.443359375
aF0.662109375
aF0.29296875
aF0.431640625
aF0.427734375
aF0.41796875
aF0.279296875
aF0.1181640625
aF0.060546875
aF0.0693359375
aF0.1123046875
aF0.0810546875
aF0.12109375
aF0.130859375
aF0.0703125
aF0.0673828125
aF0.0537109375
aF0.130859375
aF0.1064453125
aF0.1123046875
aF0.1767578125
aF0.130859375
aF0.107421875
aF0.09765625
aF0.0927734375
aF0.2470703125
aF3.337890625
aF5.0810546875
aF1.072265625
aF1.0205078125
aF1.123046875
aF0.4384765625
aF0.251953125
aF0.265625
aF0.162109375
aF0.259765625
aF0.2060546875
aF0.041015625
aF0.1318359375
aF0.107421875
aF0.0859375
aF0.072265625
aF0.1025390625
aF0.068359375
aF0.1298828125
aF0.0625
aF0.037109375
aF0.140625
aF0.0703125
aF0.0634765625
aF0.0849609375
aF0.0791015625
aF0.171875
aF0.3515625
aF0.0615234375
aF9.05078125
aF1.841796875
aF2.5224609375
aF2.7900390625
aF1.5
aF7.0341796875
aF1.099609375
aF0.4912109375
aF0.7001953125
aF0.271484375
aF0.21484375
aF0.1103515625
aF0.09375
aF0.0146484375
aF0.1123046875
aF0.0537109375
aF0.080078125
aF0.07421875
aF0.07421875
aF0.0556640625
aF0.10546875
aF0.076171875
aF0.13671875
aF0.060546875
aF0.1103515625
aF0.111328125
aF0.10546875
aF0.1474609375
aF0.1513671875
aF0.3681640625
aF0.2392578125
aF8.4169921875
aF2.8935546875
aF0.7568359375
aF1.076171875
aF0.8837890625
aF0.7158203125
aF1.18359375
aF7.3369140625
aF1.7001953125
aF0.3857421875
aF0.365234375
aF0.1474609375
aF0.087890625
aF0.0712890625
aF0.0859375
aF0.12109375
aF0.06640625
aF0.09765625
aF0.0322265625
aF0.05078125
aF0.0546875
aF0.1513671875
aF0.068359375
aF0.0869140625
aF0.080078125
aF0.1435546875
aF0.103515625
aF0.072265625
aF0.30859375
aF0.1650390625
aF0.19140625
aF0.208984375
aF0.736328125
aF2.60546875
aF0.6201171875
aF0.7568359375
aF0.72265625
aF8.4013671875
aF0.888671875
aF0.3154296875
aF0.712890625
aF1.017578125
aF0.4052734375
aF0.158203125
aF0.1865234375
aF0.095703125
aF0.0869140625
aF0.173828125
aF0.06640625
aF0.037109375
aF0.1123046875
aF0.1279296875
aF0.072265625
aF0.150390625
aF0.1025390625
aF0.076171875
aF0.091796875
aF0.0927734375
aF0.1201171875
aF0.1591796875
aF0.099609375
aF0.1240234375
aF0.4794921875
aF5.3505859375
aF1.3759765625
aF0.580078125
aF4.6259765625
aF5.1337890625
aF0.9658203125
aF0.365234375
aF0.59375
aF0.9501953125
aF0.6533203125
aF0.5400390625
aF0.2822265625
aF0.173828125
aF0.109375
aF0.08203125
aF0.123046875
aF0.0732421875
aF0.1337890625
aF0.0810546875
aF0.109375
aF0.0830078125
aF0.12109375
aF0.068359375
a.