0
0
0
3
6
1
6
0
0
1
0
0
0
0
0
0
0
3
6
1
5
0
0
1
0
0
0
1
0
3
1
0
10
10
0
4
1
1
0
0
0
0
3
0
0
10
14
0
0
0
0
3
0
2
0
0
1
0
0
0
0
1
1
1
0
0
0
0
1
3
0
1
0
0
0
0
5
1
0
0
0
0
2
1
1
0
0
0
0
1
3
0
0
0
0
0
0
3
0
2
0
8
1
1
4
3
2
0
8
2
0
0
0
0
0
7
1
0
0
0
0
0
7
2
0
0
0
0
1
8
2
0
1
0
0
3
0
4
0
0
0
0
3
0
3
0
0
0
3
6
1
205.0 6.39286545065
1.34868421053 0.0420583253332
